%YAML 1.1
%TAG !u! tag:unity3d.com,2011:
--- !u!1 &3907113114313476047
GameObject:
  m_ObjectHideFlags: 0
  m_CorrespondingSourceObject: {fileID: 0}
  m_PrefabInstance: {fileID: 0}
  m_PrefabAsset: {fileID: 0}
  serializedVersion: 6
  m_Component:
  - component: {fileID: 4540581560792088531}
  - component: {fileID: 3219558453209027519}
  m_Layer: 31
  m_Name: Ruins Tileset Palette
  m_TagString: Untagged
  m_Icon: {fileID: 0}
  m_NavMeshLayer: 0
  m_StaticEditorFlags: 0
  m_IsActive: 1
--- !u!4 &4540581560792088531
Transform:
  m_ObjectHideFlags: 0
  m_CorrespondingSourceObject: {fileID: 0}
  m_PrefabInstance: {fileID: 0}
  m_PrefabAsset: {fileID: 0}
  m_GameObject: {fileID: 3907113114313476047}
  m_LocalRotation: {x: 0, y: 0, z: 0, w: 1}
  m_LocalPosition: {x: 0, y: 0, z: 0}
  m_LocalScale: {x: 1, y: 1, z: 1}
  m_Children:
  - {fileID: 5707045592676720968}
  m_Father: {fileID: 0}
  m_RootOrder: 0
  m_LocalEulerAnglesHint: {x: 0, y: 0, z: 0}
--- !u!156049354 &3219558453209027519
Grid:
  m_ObjectHideFlags: 0
  m_CorrespondingSourceObject: {fileID: 0}
  m_PrefabInstance: {fileID: 0}
  m_PrefabAsset: {fileID: 0}
  m_GameObject: {fileID: 3907113114313476047}
  m_Enabled: 1
  m_CellSize: {x: 1, y: 1, z: 0}
  m_CellGap: {x: 0, y: 0, z: 0}
  m_CellLayout: 0
  m_CellSwizzle: 0
--- !u!1 &6165642151059939928
GameObject:
  m_ObjectHideFlags: 0
  m_CorrespondingSourceObject: {fileID: 0}
  m_PrefabInstance: {fileID: 0}
  m_PrefabAsset: {fileID: 0}
  serializedVersion: 6
  m_Component:
  - component: {fileID: 5707045592676720968}
  - component: {fileID: 7431435445938447668}
  - component: {fileID: 8246654885124850123}
  m_Layer: 31
  m_Name: Layer1
  m_TagString: Untagged
  m_Icon: {fileID: 0}
  m_NavMeshLayer: 0
  m_StaticEditorFlags: 0
  m_IsActive: 1
--- !u!4 &5707045592676720968
Transform:
  m_ObjectHideFlags: 0
  m_CorrespondingSourceObject: {fileID: 0}
  m_PrefabInstance: {fileID: 0}
  m_PrefabAsset: {fileID: 0}
  m_GameObject: {fileID: 6165642151059939928}
  m_LocalRotation: {x: -0, y: -0, z: -0, w: 1}
  m_LocalPosition: {x: 0, y: 0, z: 0}
  m_LocalScale: {x: 1, y: 1, z: 1}
  m_Children: []
  m_Father: {fileID: 4540581560792088531}
  m_RootOrder: 0
  m_LocalEulerAnglesHint: {x: 0, y: 0, z: 0}
--- !u!1839735485 &7431435445938447668
Tilemap:
  m_ObjectHideFlags: 0
  m_CorrespondingSourceObject: {fileID: 0}
  m_PrefabInstance: {fileID: 0}
  m_PrefabAsset: {fileID: 0}
  m_GameObject: {fileID: 6165642151059939928}
  m_Enabled: 1
  m_Tiles:
  - first: {x: -1, y: -9, z: 0}
    second:
      m_TileIndex: 72
      m_TileSpriteIndex: 72
      m_TileMatrixIndex: 0
      m_TileColorIndex: 0
      m_ObjectToInstantiate: {fileID: 0}
      m_TileFlags: 1
      m_ColliderType: 1
  - first: {x: 0, y: -9, z: 0}
    second:
      m_TileIndex: 73
      m_TileSpriteIndex: 73
      m_TileMatrixIndex: 0
      m_TileColorIndex: 0
      m_ObjectToInstantiate: {fileID: 0}
      m_TileFlags: 1
      m_ColliderType: 1
  - first: {x: 1, y: -9, z: 0}
    second:
      m_TileIndex: 74
      m_TileSpriteIndex: 74
      m_TileMatrixIndex: 0
      m_TileColorIndex: 0
      m_ObjectToInstantiate: {fileID: 0}
      m_TileFlags: 1
      m_ColliderType: 1
  - first: {x: 2, y: -9, z: 0}
    second:
      m_TileIndex: 75
      m_TileSpriteIndex: 75
      m_TileMatrixIndex: 0
      m_TileColorIndex: 0
      m_ObjectToInstantiate: {fileID: 0}
      m_TileFlags: 1
      m_ColliderType: 1
  - first: {x: 3, y: -9, z: 0}
    second:
      m_TileIndex: 76
      m_TileSpriteIndex: 76
      m_TileMatrixIndex: 0
      m_TileColorIndex: 0
      m_ObjectToInstantiate: {fileID: 0}
      m_TileFlags: 1
      m_ColliderType: 1
  - first: {x: 4, y: -9, z: 0}
    second:
      m_TileIndex: 77
      m_TileSpriteIndex: 77
      m_TileMatrixIndex: 0
      m_TileColorIndex: 0
      m_ObjectToInstantiate: {fileID: 0}
      m_TileFlags: 1
      m_ColliderType: 1
  - first: {x: 5, y: -9, z: 0}
    second:
      m_TileIndex: 78
      m_TileSpriteIndex: 78
      m_TileMatrixIndex: 0
      m_TileColorIndex: 0
      m_ObjectToInstantiate: {fileID: 0}
      m_TileFlags: 1
      m_ColliderType: 1
  - first: {x: 6, y: -9, z: 0}
    second:
      m_TileIndex: 79
      m_TileSpriteIndex: 79
      m_TileMatrixIndex: 0
      m_TileColorIndex: 0
      m_ObjectToInstantiate: {fileID: 0}
      m_TileFlags: 1
      m_ColliderType: 1
  - first: {x: -1, y: -8, z: 0}
    second:
      m_TileIndex: 63
      m_TileSpriteIndex: 63
      m_TileMatrixIndex: 0
      m_TileColorIndex: 0
      m_ObjectToInstantiate: {fileID: 0}
      m_TileFlags: 1
      m_ColliderType: 1
  - first: {x: 0, y: -8, z: 0}
    second:
      m_TileIndex: 64
      m_TileSpriteIndex: 64
      m_TileMatrixIndex: 0
      m_TileColorIndex: 0
      m_ObjectToInstantiate: {fileID: 0}
      m_TileFlags: 1
      m_ColliderType: 1
  - first: {x: 1, y: -8, z: 0}
    second:
      m_TileIndex: 65
      m_TileSpriteIndex: 65
      m_TileMatrixIndex: 0
      m_TileColorIndex: 0
      m_ObjectToInstantiate: {fileID: 0}
      m_TileFlags: 1
      m_ColliderType: 1
  - first: {x: 2, y: -8, z: 0}
    second:
      m_TileIndex: 66
      m_TileSpriteIndex: 66
      m_TileMatrixIndex: 0
      m_TileColorIndex: 0
      m_ObjectToInstantiate: {fileID: 0}
      m_TileFlags: 1
      m_ColliderType: 1
  - first: {x: 3, y: -8, z: 0}
    second:
      m_TileIndex: 67
      m_TileSpriteIndex: 67
      m_TileMatrixIndex: 0
      m_TileColorIndex: 0
      m_ObjectToInstantiate: {fileID: 0}
      m_TileFlags: 1
      m_ColliderType: 1
  - first: {x: 4, y: -8, z: 0}
    second:
      m_TileIndex: 68
      m_TileSpriteIndex: 68
      m_TileMatrixIndex: 0
      m_TileColorIndex: 0
      m_ObjectToInstantiate: {fileID: 0}
      m_TileFlags: 1
      m_ColliderType: 1
  - first: {x: 5, y: -8, z: 0}
    second:
      m_TileIndex: 69
      m_TileSpriteIndex: 69
      m_TileMatrixIndex: 0
      m_TileColorIndex: 0
      m_ObjectToInstantiate: {fileID: 0}
      m_TileFlags: 1
      m_ColliderType: 1
  - first: {x: 6, y: -8, z: 0}
    second:
      m_TileIndex: 70
      m_TileSpriteIndex: 70
      m_TileMatrixIndex: 0
      m_TileColorIndex: 0
      m_ObjectToInstantiate: {fileID: 0}
      m_TileFlags: 1
      m_ColliderType: 1
  - first: {x: 7, y: -8, z: 0}
    second:
      m_TileIndex: 71
      m_TileSpriteIndex: 71
      m_TileMatrixIndex: 0
      m_TileColorIndex: 0
      m_ObjectToInstantiate: {fileID: 0}
      m_TileFlags: 1
      m_ColliderType: 1
  - first: {x: -1, y: -7, z: 0}
    second:
      m_TileIndex: 54
      m_TileSpriteIndex: 54
      m_TileMatrixIndex: 0
      m_TileColorIndex: 0
      m_ObjectToInstantiate: {fileID: 0}
      m_TileFlags: 1
      m_ColliderType: 1
  - first: {x: 0, y: -7, z: 0}
    second:
      m_TileIndex: 55
      m_TileSpriteIndex: 55
      m_TileMatrixIndex: 0
      m_TileColorIndex: 0
      m_ObjectToInstantiate: {fileID: 0}
      m_TileFlags: 1
      m_ColliderType: 1
  - first: {x: 1, y: -7, z: 0}
    second:
      m_TileIndex: 56
      m_TileSpriteIndex: 56
      m_TileMatrixIndex: 0
      m_TileColorIndex: 0
      m_ObjectToInstantiate: {fileID: 0}
      m_TileFlags: 1
      m_ColliderType: 1
  - first: {x: 2, y: -7, z: 0}
    second:
      m_TileIndex: 57
      m_TileSpriteIndex: 57
      m_TileMatrixIndex: 0
      m_TileColorIndex: 0
      m_ObjectToInstantiate: {fileID: 0}
      m_TileFlags: 1
      m_ColliderType: 1
  - first: {x: 3, y: -7, z: 0}
    second:
      m_TileIndex: 58
      m_TileSpriteIndex: 58
      m_TileMatrixIndex: 0
      m_TileColorIndex: 0
      m_ObjectToInstantiate: {fileID: 0}
      m_TileFlags: 1
      m_ColliderType: 1
  - first: {x: 4, y: -7, z: 0}
    second:
      m_TileIndex: 59
      m_TileSpriteIndex: 59
      m_TileMatrixIndex: 0
      m_TileColorIndex: 0
      m_ObjectToInstantiate: {fileID: 0}
      m_TileFlags: 1
      m_ColliderType: 1
  - first: {x: 5, y: -7, z: 0}
    second:
      m_TileIndex: 60
      m_TileSpriteIndex: 60
      m_TileMatrixIndex: 0
      m_TileColorIndex: 0
      m_ObjectToInstantiate: {fileID: 0}
      m_TileFlags: 1
      m_ColliderType: 1
  - first: {x: 6, y: -7, z: 0}
    second:
      m_TileIndex: 61
      m_TileSpriteIndex: 61
      m_TileMatrixIndex: 0
      m_TileColorIndex: 0
      m_ObjectToInstantiate: {fileID: 0}
      m_TileFlags: 1
      m_ColliderType: 1
  - first: {x: 7, y: -7, z: 0}
    second:
      m_TileIndex: 62
      m_TileSpriteIndex: 62
      m_TileMatrixIndex: 0
      m_TileColorIndex: 0
      m_ObjectToInstantiate: {fileID: 0}
      m_TileFlags: 1
      m_ColliderType: 1
  - first: {x: -1, y: -6, z: 0}
    second:
      m_TileIndex: 45
      m_TileSpriteIndex: 45
      m_TileMatrixIndex: 0
      m_TileColorIndex: 0
      m_ObjectToInstantiate: {fileID: 0}
      m_TileFlags: 1
      m_ColliderType: 1
  - first: {x: 0, y: -6, z: 0}
    second:
      m_TileIndex: 46
      m_TileSpriteIndex: 46
      m_TileMatrixIndex: 0
      m_TileColorIndex: 0
      m_ObjectToInstantiate: {fileID: 0}
      m_TileFlags: 1
      m_ColliderType: 1
  - first: {x: 1, y: -6, z: 0}
    second:
      m_TileIndex: 47
      m_TileSpriteIndex: 47
      m_TileMatrixIndex: 0
      m_TileColorIndex: 0
      m_ObjectToInstantiate: {fileID: 0}
      m_TileFlags: 1
      m_ColliderType: 1
  - first: {x: 2, y: -6, z: 0}
    second:
      m_TileIndex: 48
      m_TileSpriteIndex: 48
      m_TileMatrixIndex: 0
      m_TileColorIndex: 0
      m_ObjectToInstantiate: {fileID: 0}
      m_TileFlags: 1
      m_ColliderType: 1
  - first: {x: 3, y: -6, z: 0}
    second:
      m_TileIndex: 49
      m_TileSpriteIndex: 49
      m_TileMatrixIndex: 0
      m_TileColorIndex: 0
      m_ObjectToInstantiate: {fileID: 0}
      m_TileFlags: 1
      m_ColliderType: 1
  - first: {x: 4, y: -6, z: 0}
    second:
      m_TileIndex: 50
      m_TileSpriteIndex: 50
      m_TileMatrixIndex: 0
      m_TileColorIndex: 0
      m_ObjectToInstantiate: {fileID: 0}
      m_TileFlags: 1
      m_ColliderType: 1
  - first: {x: 5, y: -6, z: 0}
    second:
      m_TileIndex: 51
      m_TileSpriteIndex: 51
      m_TileMatrixIndex: 0
      m_TileColorIndex: 0
      m_ObjectToInstantiate: {fileID: 0}
      m_TileFlags: 1
      m_ColliderType: 1
  - first: {x: 6, y: -6, z: 0}
    second:
      m_TileIndex: 52
      m_TileSpriteIndex: 52
      m_TileMatrixIndex: 0
      m_TileColorIndex: 0
      m_ObjectToInstantiate: {fileID: 0}
      m_TileFlags: 1
      m_ColliderType: 1
  - first: {x: 7, y: -6, z: 0}
    second:
      m_TileIndex: 53
      m_TileSpriteIndex: 53
      m_TileMatrixIndex: 0
      m_TileColorIndex: 0
      m_ObjectToInstantiate: {fileID: 0}
      m_TileFlags: 1
      m_ColliderType: 1
  - first: {x: -1, y: -5, z: 0}
    second:
      m_TileIndex: 36
      m_TileSpriteIndex: 36
      m_TileMatrixIndex: 0
      m_TileColorIndex: 0
      m_ObjectToInstantiate: {fileID: 0}
      m_TileFlags: 1
      m_ColliderType: 1
  - first: {x: 0, y: -5, z: 0}
    second:
      m_TileIndex: 37
      m_TileSpriteIndex: 37
      m_TileMatrixIndex: 0
      m_TileColorIndex: 0
      m_ObjectToInstantiate: {fileID: 0}
      m_TileFlags: 1
      m_ColliderType: 1
  - first: {x: 1, y: -5, z: 0}
    second:
      m_TileIndex: 38
      m_TileSpriteIndex: 38
      m_TileMatrixIndex: 0
      m_TileColorIndex: 0
      m_ObjectToInstantiate: {fileID: 0}
      m_TileFlags: 1
      m_ColliderType: 1
  - first: {x: 2, y: -5, z: 0}
    second:
      m_TileIndex: 39
      m_TileSpriteIndex: 39
      m_TileMatrixIndex: 0
      m_TileColorIndex: 0
      m_ObjectToInstantiate: {fileID: 0}
      m_TileFlags: 1
      m_ColliderType: 1
  - first: {x: 3, y: -5, z: 0}
    second:
      m_TileIndex: 40
      m_TileSpriteIndex: 40
      m_TileMatrixIndex: 0
      m_TileColorIndex: 0
      m_ObjectToInstantiate: {fileID: 0}
      m_TileFlags: 1
      m_ColliderType: 1
  - first: {x: 4, y: -5, z: 0}
    second:
      m_TileIndex: 41
      m_TileSpriteIndex: 41
      m_TileMatrixIndex: 0
      m_TileColorIndex: 0
      m_ObjectToInstantiate: {fileID: 0}
      m_TileFlags: 1
      m_ColliderType: 1
  - first: {x: 5, y: -5, z: 0}
    second:
      m_TileIndex: 42
      m_TileSpriteIndex: 42
      m_TileMatrixIndex: 0
      m_TileColorIndex: 0
      m_ObjectToInstantiate: {fileID: 0}
      m_TileFlags: 1
      m_ColliderType: 1
  - first: {x: 6, y: -5, z: 0}
    second:
      m_TileIndex: 43
      m_TileSpriteIndex: 43
      m_TileMatrixIndex: 0
      m_TileColorIndex: 0
      m_ObjectToInstantiate: {fileID: 0}
      m_TileFlags: 1
      m_ColliderType: 1
  - first: {x: 7, y: -5, z: 0}
    second:
      m_TileIndex: 44
      m_TileSpriteIndex: 44
      m_TileMatrixIndex: 0
      m_TileColorIndex: 0
      m_ObjectToInstantiate: {fileID: 0}
      m_TileFlags: 1
      m_ColliderType: 1
  - first: {x: -1, y: -4, z: 0}
    second:
      m_TileIndex: 27
      m_TileSpriteIndex: 27
      m_TileMatrixIndex: 0
      m_TileColorIndex: 0
      m_ObjectToInstantiate: {fileID: 0}
      m_TileFlags: 1
      m_ColliderType: 1
  - first: {x: 0, y: -4, z: 0}
    second:
      m_TileIndex: 28
      m_TileSpriteIndex: 28
      m_TileMatrixIndex: 0
      m_TileColorIndex: 0
      m_ObjectToInstantiate: {fileID: 0}
      m_TileFlags: 1
      m_ColliderType: 1
  - first: {x: 1, y: -4, z: 0}
    second:
      m_TileIndex: 29
      m_TileSpriteIndex: 29
      m_TileMatrixIndex: 0
      m_TileColorIndex: 0
      m_ObjectToInstantiate: {fileID: 0}
      m_TileFlags: 1
      m_ColliderType: 1
  - first: {x: 2, y: -4, z: 0}
    second:
      m_TileIndex: 30
      m_TileSpriteIndex: 30
      m_TileMatrixIndex: 0
      m_TileColorIndex: 0
      m_ObjectToInstantiate: {fileID: 0}
      m_TileFlags: 1
      m_ColliderType: 1
  - first: {x: 3, y: -4, z: 0}
    second:
      m_TileIndex: 31
      m_TileSpriteIndex: 31
      m_TileMatrixIndex: 0
      m_TileColorIndex: 0
      m_ObjectToInstantiate: {fileID: 0}
      m_TileFlags: 1
      m_ColliderType: 1
  - first: {x: 4, y: -4, z: 0}
    second:
      m_TileIndex: 32
      m_TileSpriteIndex: 32
      m_TileMatrixIndex: 0
      m_TileColorIndex: 0
      m_ObjectToInstantiate: {fileID: 0}
      m_TileFlags: 1
      m_ColliderType: 1
  - first: {x: 5, y: -4, z: 0}
    second:
      m_TileIndex: 33
      m_TileSpriteIndex: 33
      m_TileMatrixIndex: 0
      m_TileColorIndex: 0
      m_ObjectToInstantiate: {fileID: 0}
      m_TileFlags: 1
      m_ColliderType: 1
  - first: {x: 6, y: -4, z: 0}
    second:
      m_TileIndex: 34
      m_TileSpriteIndex: 34
      m_TileMatrixIndex: 0
      m_TileColorIndex: 0
      m_ObjectToInstantiate: {fileID: 0}
      m_TileFlags: 1
      m_ColliderType: 1
  - first: {x: 7, y: -4, z: 0}
    second:
      m_TileIndex: 35
      m_TileSpriteIndex: 35
      m_TileMatrixIndex: 0
      m_TileColorIndex: 0
      m_ObjectToInstantiate: {fileID: 0}
      m_TileFlags: 1
      m_ColliderType: 1
  - first: {x: -1, y: -3, z: 0}
    second:
      m_TileIndex: 18
      m_TileSpriteIndex: 18
      m_TileMatrixIndex: 0
      m_TileColorIndex: 0
      m_ObjectToInstantiate: {fileID: 0}
      m_TileFlags: 1
      m_ColliderType: 1
  - first: {x: 0, y: -3, z: 0}
    second:
      m_TileIndex: 19
      m_TileSpriteIndex: 19
      m_TileMatrixIndex: 0
      m_TileColorIndex: 0
      m_ObjectToInstantiate: {fileID: 0}
      m_TileFlags: 1
      m_ColliderType: 1
  - first: {x: 1, y: -3, z: 0}
    second:
      m_TileIndex: 20
      m_TileSpriteIndex: 20
      m_TileMatrixIndex: 0
      m_TileColorIndex: 0
      m_ObjectToInstantiate: {fileID: 0}
      m_TileFlags: 1
      m_ColliderType: 1
  - first: {x: 2, y: -3, z: 0}
    second:
      m_TileIndex: 21
      m_TileSpriteIndex: 21
      m_TileMatrixIndex: 0
      m_TileColorIndex: 0
      m_ObjectToInstantiate: {fileID: 0}
      m_TileFlags: 1
      m_ColliderType: 1
  - first: {x: 3, y: -3, z: 0}
    second:
      m_TileIndex: 22
      m_TileSpriteIndex: 22
      m_TileMatrixIndex: 0
      m_TileColorIndex: 0
      m_ObjectToInstantiate: {fileID: 0}
      m_TileFlags: 1
      m_ColliderType: 1
  - first: {x: 4, y: -3, z: 0}
    second:
      m_TileIndex: 23
      m_TileSpriteIndex: 23
      m_TileMatrixIndex: 0
      m_TileColorIndex: 0
      m_ObjectToInstantiate: {fileID: 0}
      m_TileFlags: 1
      m_ColliderType: 1
  - first: {x: 5, y: -3, z: 0}
    second:
      m_TileIndex: 24
      m_TileSpriteIndex: 24
      m_TileMatrixIndex: 0
      m_TileColorIndex: 0
      m_ObjectToInstantiate: {fileID: 0}
      m_TileFlags: 1
      m_ColliderType: 1
  - first: {x: 6, y: -3, z: 0}
    second:
      m_TileIndex: 25
      m_TileSpriteIndex: 25
      m_TileMatrixIndex: 0
      m_TileColorIndex: 0
      m_ObjectToInstantiate: {fileID: 0}
      m_TileFlags: 1
      m_ColliderType: 1
  - first: {x: 7, y: -3, z: 0}
    second:
      m_TileIndex: 26
      m_TileSpriteIndex: 26
      m_TileMatrixIndex: 0
      m_TileColorIndex: 0
      m_ObjectToInstantiate: {fileID: 0}
      m_TileFlags: 1
      m_ColliderType: 1
  - first: {x: -1, y: -2, z: 0}
    second:
      m_TileIndex: 9
      m_TileSpriteIndex: 9
      m_TileMatrixIndex: 0
      m_TileColorIndex: 0
      m_ObjectToInstantiate: {fileID: 0}
      m_TileFlags: 1
      m_ColliderType: 1
  - first: {x: 0, y: -2, z: 0}
    second:
      m_TileIndex: 10
      m_TileSpriteIndex: 10
      m_TileMatrixIndex: 0
      m_TileColorIndex: 0
      m_ObjectToInstantiate: {fileID: 0}
      m_TileFlags: 1
      m_ColliderType: 1
  - first: {x: 1, y: -2, z: 0}
    second:
      m_TileIndex: 11
      m_TileSpriteIndex: 11
      m_TileMatrixIndex: 0
      m_TileColorIndex: 0
      m_ObjectToInstantiate: {fileID: 0}
      m_TileFlags: 1
      m_ColliderType: 1
  - first: {x: 2, y: -2, z: 0}
    second:
      m_TileIndex: 12
      m_TileSpriteIndex: 12
      m_TileMatrixIndex: 0
      m_TileColorIndex: 0
      m_ObjectToInstantiate: {fileID: 0}
      m_TileFlags: 1
      m_ColliderType: 1
  - first: {x: 3, y: -2, z: 0}
    second:
      m_TileIndex: 13
      m_TileSpriteIndex: 13
      m_TileMatrixIndex: 0
      m_TileColorIndex: 0
      m_ObjectToInstantiate: {fileID: 0}
      m_TileFlags: 1
      m_ColliderType: 1
  - first: {x: 4, y: -2, z: 0}
    second:
      m_TileIndex: 14
      m_TileSpriteIndex: 14
      m_TileMatrixIndex: 0
      m_TileColorIndex: 0
      m_ObjectToInstantiate: {fileID: 0}
      m_TileFlags: 1
      m_ColliderType: 1
  - first: {x: 5, y: -2, z: 0}
    second:
      m_TileIndex: 15
      m_TileSpriteIndex: 15
      m_TileMatrixIndex: 0
      m_TileColorIndex: 0
      m_ObjectToInstantiate: {fileID: 0}
      m_TileFlags: 1
      m_ColliderType: 1
  - first: {x: 6, y: -2, z: 0}
    second:
      m_TileIndex: 16
      m_TileSpriteIndex: 16
      m_TileMatrixIndex: 0
      m_TileColorIndex: 0
      m_ObjectToInstantiate: {fileID: 0}
      m_TileFlags: 1
      m_ColliderType: 1
  - first: {x: 7, y: -2, z: 0}
    second:
      m_TileIndex: 17
      m_TileSpriteIndex: 17
      m_TileMatrixIndex: 0
      m_TileColorIndex: 0
      m_ObjectToInstantiate: {fileID: 0}
      m_TileFlags: 1
      m_ColliderType: 1
  - first: {x: -1, y: -1, z: 0}
    second:
      m_TileIndex: 0
      m_TileSpriteIndex: 0
      m_TileMatrixIndex: 0
      m_TileColorIndex: 0
      m_ObjectToInstantiate: {fileID: 0}
      m_TileFlags: 1
      m_ColliderType: 1
  - first: {x: 0, y: -1, z: 0}
    second:
      m_TileIndex: 1
      m_TileSpriteIndex: 1
      m_TileMatrixIndex: 0
      m_TileColorIndex: 0
      m_ObjectToInstantiate: {fileID: 0}
      m_TileFlags: 1
      m_ColliderType: 1
  - first: {x: 1, y: -1, z: 0}
    second:
      m_TileIndex: 2
      m_TileSpriteIndex: 2
      m_TileMatrixIndex: 0
      m_TileColorIndex: 0
      m_ObjectToInstantiate: {fileID: 0}
      m_TileFlags: 1
      m_ColliderType: 1
  - first: {x: 2, y: -1, z: 0}
    second:
      m_TileIndex: 3
      m_TileSpriteIndex: 3
      m_TileMatrixIndex: 0
      m_TileColorIndex: 0
      m_ObjectToInstantiate: {fileID: 0}
      m_TileFlags: 1
      m_ColliderType: 1
  - first: {x: 3, y: -1, z: 0}
    second:
      m_TileIndex: 4
      m_TileSpriteIndex: 4
      m_TileMatrixIndex: 0
      m_TileColorIndex: 0
      m_ObjectToInstantiate: {fileID: 0}
      m_TileFlags: 1
      m_ColliderType: 1
  - first: {x: 4, y: -1, z: 0}
    second:
      m_TileIndex: 5
      m_TileSpriteIndex: 5
      m_TileMatrixIndex: 0
      m_TileColorIndex: 0
      m_ObjectToInstantiate: {fileID: 0}
      m_TileFlags: 1
      m_ColliderType: 1
  - first: {x: 5, y: -1, z: 0}
    second:
      m_TileIndex: 6
      m_TileSpriteIndex: 6
      m_TileMatrixIndex: 0
      m_TileColorIndex: 0
      m_ObjectToInstantiate: {fileID: 0}
      m_TileFlags: 1
      m_ColliderType: 1
  - first: {x: 6, y: -1, z: 0}
    second:
      m_TileIndex: 7
      m_TileSpriteIndex: 7
      m_TileMatrixIndex: 0
      m_TileColorIndex: 0
      m_ObjectToInstantiate: {fileID: 0}
      m_TileFlags: 1
      m_ColliderType: 1
  - first: {x: 7, y: -1, z: 0}
    second:
      m_TileIndex: 8
      m_TileSpriteIndex: 8
      m_TileMatrixIndex: 0
      m_TileColorIndex: 0
      m_ObjectToInstantiate: {fileID: 0}
      m_TileFlags: 1
      m_ColliderType: 1
  m_AnimatedTiles: {}
  m_TileAssetArray:
  - m_RefCount: 1
    m_Data: {fileID: 11400000, guid: b153e7952455ed743a964ef5de5fa067, type: 2}
  - m_RefCount: 1
    m_Data: {fileID: 11400000, guid: 402bb0a84edc05047b6095ad8024cb97, type: 2}
  - m_RefCount: 1
    m_Data: {fileID: 11400000, guid: a030575434af84f4b87730679b5b9fc5, type: 2}
  - m_RefCount: 1
    m_Data: {fileID: 11400000, guid: 1b0b98153bbc70c4bb6b00b617bc1d80, type: 2}
  - m_RefCount: 1
    m_Data: {fileID: 11400000, guid: e22d638e67dbed94aa5b932a50b4ac9a, type: 2}
  - m_RefCount: 1
    m_Data: {fileID: 11400000, guid: 35a27f50bede9264c8c94c0f72bfa2a2, type: 2}
  - m_RefCount: 1
    m_Data: {fileID: 11400000, guid: e4e56eae3242b964ba7420e8138888d1, type: 2}
  - m_RefCount: 1
    m_Data: {fileID: 11400000, guid: 9a4ec1a9e51ba8f4eb64d7ffbc31dd70, type: 2}
  - m_RefCount: 1
    m_Data: {fileID: 11400000, guid: 4c35e7d35cbf7304db59538567751d7a, type: 2}
  - m_RefCount: 1
    m_Data: {fileID: 11400000, guid: 7ad2cc2121bbe3544ae0d19a75231a36, type: 2}
  - m_RefCount: 1
    m_Data: {fileID: 11400000, guid: 132f7889378293949b27b67f162fc566, type: 2}
  - m_RefCount: 1
    m_Data: {fileID: 11400000, guid: 0b6b6524b46200442a91e9fd3978e7ce, type: 2}
  - m_RefCount: 1
    m_Data: {fileID: 11400000, guid: ee5ea3495e11a3a40a4f1706117f1e09, type: 2}
  - m_RefCount: 1
    m_Data: {fileID: 11400000, guid: 27b7a30e1d92df64e91f0efc40e82ed5, type: 2}
  - m_RefCount: 1
    m_Data: {fileID: 11400000, guid: 01154f5bf39b7fe40a66c1613ea1eebc, type: 2}
  - m_RefCount: 1
    m_Data: {fileID: 11400000, guid: 6b75c95428e75a54397158ee75bd19c9, type: 2}
  - m_RefCount: 1
    m_Data: {fileID: 11400000, guid: b495d4a815b630443ac73ddf8f20b0ec, type: 2}
  - m_RefCount: 1
    m_Data: {fileID: 11400000, guid: e5974c85cce108d438c86bac45206806, type: 2}
  - m_RefCount: 1
    m_Data: {fileID: 11400000, guid: 09f164b60517b044da4a170dadd69971, type: 2}
  - m_RefCount: 1
    m_Data: {fileID: 11400000, guid: 03fe212ed32a3674cb4de5ffce9ffeba, type: 2}
  - m_RefCount: 1
    m_Data: {fileID: 11400000, guid: 6c6bcf632eef37a49959dd16cc6b0d18, type: 2}
  - m_RefCount: 1
    m_Data: {fileID: 11400000, guid: 5b90f001a7850bd47a0982f9c1470078, type: 2}
  - m_RefCount: 1
    m_Data: {fileID: 11400000, guid: e575044e585dd5f4babc17d3d6ea6f7e, type: 2}
  - m_RefCount: 1
    m_Data: {fileID: 11400000, guid: 1248a428be9698743a2aa69fd2e7759b, type: 2}
  - m_RefCount: 1
    m_Data: {fileID: 11400000, guid: d7c17ef9a63c38344893e28ad8916fe2, type: 2}
  - m_RefCount: 1
    m_Data: {fileID: 11400000, guid: 6a17cad1c4df9e143a585918419aecbd, type: 2}
  - m_RefCount: 1
    m_Data: {fileID: 11400000, guid: 6e826618a21453d4e9552347e149fb03, type: 2}
  - m_RefCount: 1
    m_Data: {fileID: 11400000, guid: ac3d671656e37d84e95d92017a436bd9, type: 2}
  - m_RefCount: 1
    m_Data: {fileID: 11400000, guid: d7c9cfa040c4a4748b582fe63a754327, type: 2}
  - m_RefCount: 1
    m_Data: {fileID: 11400000, guid: c447f9f7f8bcd39409bbc1aabb0d5e01, type: 2}
  - m_RefCount: 1
    m_Data: {fileID: 11400000, guid: d95b4d84ed09ea546a11608832a765a3, type: 2}
  - m_RefCount: 1
    m_Data: {fileID: 11400000, guid: 3c4635d89d1e5a64784e5fcc36c6db2a, type: 2}
  - m_RefCount: 1
    m_Data: {fileID: 11400000, guid: 86f403115a09dfd4c9c0ea0e9e016fff, type: 2}
  - m_RefCount: 1
    m_Data: {fileID: 11400000, guid: 30119b38ab0254b4399afa7a089bfc22, type: 2}
  - m_RefCount: 1
    m_Data: {fileID: 11400000, guid: 567ca78b98d4df34b92b8ac65091d1ce, type: 2}
  - m_RefCount: 1
    m_Data: {fileID: 11400000, guid: 52ebd4df8eaa311438366eb7a9dc3765, type: 2}
  - m_RefCount: 1
    m_Data: {fileID: 11400000, guid: 183a2541980e13e4aa27cdfe47f9417f, type: 2}
  - m_RefCount: 1
    m_Data: {fileID: 11400000, guid: 136763ca3ec58a24d94fe3384a3d6664, type: 2}
  - m_RefCount: 1
    m_Data: {fileID: 11400000, guid: 24aeb430c1deb2b4d96387cce2f02d95, type: 2}
  - m_RefCount: 1
    m_Data: {fileID: 11400000, guid: 071e2b769172cad40b58ff3a27cea292, type: 2}
  - m_RefCount: 1
    m_Data: {fileID: 11400000, guid: bd3e372feb96fba4d9e8fedace830d2f, type: 2}
  - m_RefCount: 1
    m_Data: {fileID: 11400000, guid: c571ec4f6f92481408a94c03aa1a0d39, type: 2}
  - m_RefCount: 1
    m_Data: {fileID: 11400000, guid: f825c52870a4afb44b63b7e97c6f77d7, type: 2}
  - m_RefCount: 1
    m_Data: {fileID: 11400000, guid: a8628824e76887247a32dad5864867ca, type: 2}
  - m_RefCount: 1
    m_Data: {fileID: 11400000, guid: fe4a9b699d9333640b51a46e79057c0a, type: 2}
  - m_RefCount: 1
    m_Data: {fileID: 11400000, guid: 4ca0db571dbf4ed4d9a1a079acfd05de, type: 2}
  - m_RefCount: 1
    m_Data: {fileID: 11400000, guid: 5fb1b458d1d754145a1cf3989d69c54f, type: 2}
  - m_RefCount: 1
    m_Data: {fileID: 11400000, guid: f271d3c0992331d41bac0907d7a69ecf, type: 2}
  - m_RefCount: 1
    m_Data: {fileID: 11400000, guid: d4251337488728b4ea6b50f1cbb5880a, type: 2}
  - m_RefCount: 1
    m_Data: {fileID: 11400000, guid: 2ae70c290147fbc479a89902b8b74180, type: 2}
  - m_RefCount: 1
    m_Data: {fileID: 11400000, guid: 9be9ace7bde159241bcb9cfd1b92915a, type: 2}
  - m_RefCount: 1
    m_Data: {fileID: 11400000, guid: a298b9e5abd30f64ebbd2dcdd5a82bc9, type: 2}
  - m_RefCount: 1
    m_Data: {fileID: 11400000, guid: 20949fe3e39eb404486d43d0315ec957, type: 2}
  - m_RefCount: 1
    m_Data: {fileID: 11400000, guid: 0ac65ac16a5375d48b32d34ef5b551ae, type: 2}
  - m_RefCount: 1
    m_Data: {fileID: 11400000, guid: 46cdff8660ac08b4d9a1b55f400c96e3, type: 2}
  - m_RefCount: 1
    m_Data: {fileID: 11400000, guid: c5eeff26b2d1da34fa8d89a4f0ce151c, type: 2}
  - m_RefCount: 1
    m_Data: {fileID: 11400000, guid: 2201fc81ca1a47e4cb78b2c7a5ff0ae8, type: 2}
  - m_RefCount: 1
    m_Data: {fileID: 11400000, guid: 18e4136874afa2a4dac379f1940bbd1d, type: 2}
  - m_RefCount: 1
    m_Data: {fileID: 11400000, guid: 4d065d62d4d47994188ef37ceb06fb70, type: 2}
  - m_RefCount: 1
    m_Data: {fileID: 11400000, guid: 6d77f46f0c80c8e41af5265a00f6f36b, type: 2}
  - m_RefCount: 1
    m_Data: {fileID: 11400000, guid: 9d12120a50df7aa499ad57b49f1abfb6, type: 2}
  - m_RefCount: 1
    m_Data: {fileID: 11400000, guid: 443efc52ef18abc4c848d418f5d2a129, type: 2}
  - m_RefCount: 1
    m_Data: {fileID: 11400000, guid: 1c44ff6e317b7cb45ab61d0048cb88d6, type: 2}
  - m_RefCount: 1
    m_Data: {fileID: 11400000, guid: ed7da7610a7c414479d157b7edae842b, type: 2}
  - m_RefCount: 1
    m_Data: {fileID: 11400000, guid: ae78c4b772cf7ee41bc75c5812f5456f, type: 2}
  - m_RefCount: 1
    m_Data: {fileID: 11400000, guid: 8c5e8af821317d94da69225b7c899f84, type: 2}
  - m_RefCount: 1
    m_Data: {fileID: 11400000, guid: 22a6d978112ce9d4c91d936f44c3c598, type: 2}
  - m_RefCount: 1
    m_Data: {fileID: 11400000, guid: 061299ea137ee4441a688e39c1a3f446, type: 2}
  - m_RefCount: 1
    m_Data: {fileID: 11400000, guid: cacaa38a99bd9f445b06ce1bd9592bbd, type: 2}
  - m_RefCount: 1
    m_Data: {fileID: 11400000, guid: 18c8aac33f67bc04c83d097e68a1e8ae, type: 2}
  - m_RefCount: 1
    m_Data: {fileID: 11400000, guid: f8847909e924187408241a24415e7a3b, type: 2}
  - m_RefCount: 1
    m_Data: {fileID: 11400000, guid: 3311d01ff2c7c6540b5c997aab78d211, type: 2}
  - m_RefCount: 1
    m_Data: {fileID: 11400000, guid: 35ca075075d5a4b4abed5dc95cdb6b73, type: 2}
  - m_RefCount: 1
    m_Data: {fileID: 11400000, guid: abdece2dacfb29b4b8ed7a0bcfca12a5, type: 2}
  - m_RefCount: 1
    m_Data: {fileID: 11400000, guid: d63ead0bddcc95847ae45c8811e9d2e2, type: 2}
  - m_RefCount: 1
    m_Data: {fileID: 11400000, guid: f891e72e9fa20984fb112555f2dd036f, type: 2}
  - m_RefCount: 1
    m_Data: {fileID: 11400000, guid: 77f0b560eb8a98d469db5bb2b92cd301, type: 2}
  - m_RefCount: 1
    m_Data: {fileID: 11400000, guid: 9afbc40840b371a4fbb3d575edd29234, type: 2}
  - m_RefCount: 1
    m_Data: {fileID: 11400000, guid: 61f41ac3f459c4642b975cde3ad87bff, type: 2}
  - m_RefCount: 1
    m_Data: {fileID: 11400000, guid: 5d729521b8036d24c850aac9a7d5d7bc, type: 2}
  m_TileSpriteArray:
  - m_RefCount: 1
    m_Data: {fileID: 349823833441268365, guid: e202e2fc2101a4c4490b3acf95f4b294, type: 3}
  - m_RefCount: 1
    m_Data: {fileID: -6614373457484812694, guid: e202e2fc2101a4c4490b3acf95f4b294,
      type: 3}
  - m_RefCount: 1
    m_Data: {fileID: 1639214462598301798, guid: e202e2fc2101a4c4490b3acf95f4b294,
      type: 3}
  - m_RefCount: 1
    m_Data: {fileID: 2157240733274199957, guid: e202e2fc2101a4c4490b3acf95f4b294,
      type: 3}
  - m_RefCount: 1
    m_Data: {fileID: 4798128000316562087, guid: e202e2fc2101a4c4490b3acf95f4b294,
      type: 3}
  - m_RefCount: 1
    m_Data: {fileID: -7995846982363831464, guid: e202e2fc2101a4c4490b3acf95f4b294,
      type: 3}
  - m_RefCount: 1
    m_Data: {fileID: -4202638810691693305, guid: e202e2fc2101a4c4490b3acf95f4b294,
      type: 3}
  - m_RefCount: 1
    m_Data: {fileID: -7708644975649761358, guid: e202e2fc2101a4c4490b3acf95f4b294,
      type: 3}
  - m_RefCount: 1
    m_Data: {fileID: -1530080802165054831, guid: e202e2fc2101a4c4490b3acf95f4b294,
      type: 3}
  - m_RefCount: 1
    m_Data: {fileID: 5560954434011818755, guid: e202e2fc2101a4c4490b3acf95f4b294,
      type: 3}
  - m_RefCount: 1
    m_Data: {fileID: 4239528737361974724, guid: e202e2fc2101a4c4490b3acf95f4b294,
      type: 3}
  - m_RefCount: 1
    m_Data: {fileID: -4672163745296329812, guid: e202e2fc2101a4c4490b3acf95f4b294,
      type: 3}
  - m_RefCount: 1
    m_Data: {fileID: -8305803365058092108, guid: e202e2fc2101a4c4490b3acf95f4b294,
      type: 3}
  - m_RefCount: 1
    m_Data: {fileID: 5541110501864291823, guid: e202e2fc2101a4c4490b3acf95f4b294,
      type: 3}
  - m_RefCount: 1
    m_Data: {fileID: -5012251703786577423, guid: e202e2fc2101a4c4490b3acf95f4b294,
      type: 3}
  - m_RefCount: 1
    m_Data: {fileID: 2252217939642970804, guid: e202e2fc2101a4c4490b3acf95f4b294,
      type: 3}
  - m_RefCount: 1
    m_Data: {fileID: 3048892388686381023, guid: e202e2fc2101a4c4490b3acf95f4b294,
      type: 3}
  - m_RefCount: 1
    m_Data: {fileID: -2734800647392024937, guid: e202e2fc2101a4c4490b3acf95f4b294,
      type: 3}
  - m_RefCount: 1
    m_Data: {fileID: 3786829970477001853, guid: e202e2fc2101a4c4490b3acf95f4b294,
      type: 3}
  - m_RefCount: 1
    m_Data: {fileID: -2943289621063786373, guid: e202e2fc2101a4c4490b3acf95f4b294,
      type: 3}
  - m_RefCount: 1
    m_Data: {fileID: 2870286397712609369, guid: e202e2fc2101a4c4490b3acf95f4b294,
      type: 3}
  - m_RefCount: 1
    m_Data: {fileID: -6925154376186504650, guid: e202e2fc2101a4c4490b3acf95f4b294,
      type: 3}
  - m_RefCount: 1
    m_Data: {fileID: 922424046108175333, guid: e202e2fc2101a4c4490b3acf95f4b294, type: 3}
  - m_RefCount: 1
    m_Data: {fileID: -4016574229998233168, guid: e202e2fc2101a4c4490b3acf95f4b294,
      type: 3}
  - m_RefCount: 1
    m_Data: {fileID: -6292215929027113611, guid: e202e2fc2101a4c4490b3acf95f4b294,
      type: 3}
  - m_RefCount: 1
    m_Data: {fileID: 3017993688136988190, guid: e202e2fc2101a4c4490b3acf95f4b294,
      type: 3}
  - m_RefCount: 1
    m_Data: {fileID: 6363912815652929497, guid: e202e2fc2101a4c4490b3acf95f4b294,
      type: 3}
  - m_RefCount: 1
    m_Data: {fileID: 7397035649948849851, guid: e202e2fc2101a4c4490b3acf95f4b294,
      type: 3}
  - m_RefCount: 1
    m_Data: {fileID: 61205593611490087, guid: e202e2fc2101a4c4490b3acf95f4b294, type: 3}
  - m_RefCount: 1
    m_Data: {fileID: -7052531943125621977, guid: e202e2fc2101a4c4490b3acf95f4b294,
      type: 3}
  - m_RefCount: 1
    m_Data: {fileID: -6848179138509233854, guid: e202e2fc2101a4c4490b3acf95f4b294,
      type: 3}
  - m_RefCount: 1
    m_Data: {fileID: -8473965523027447877, guid: e202e2fc2101a4c4490b3acf95f4b294,
      type: 3}
  - m_RefCount: 1
    m_Data: {fileID: 4410115334632175332, guid: e202e2fc2101a4c4490b3acf95f4b294,
      type: 3}
  - m_RefCount: 1
    m_Data: {fileID: 8189123915696156741, guid: e202e2fc2101a4c4490b3acf95f4b294,
      type: 3}
  - m_RefCount: 1
    m_Data: {fileID: 49598692365941603, guid: e202e2fc2101a4c4490b3acf95f4b294, type: 3}
  - m_RefCount: 1
    m_Data: {fileID: 57701541896607731, guid: e202e2fc2101a4c4490b3acf95f4b294, type: 3}
  - m_RefCount: 1
    m_Data: {fileID: -4590312153206918926, guid: e202e2fc2101a4c4490b3acf95f4b294,
      type: 3}
  - m_RefCount: 1
    m_Data: {fileID: 6568244172134801747, guid: e202e2fc2101a4c4490b3acf95f4b294,
      type: 3}
  - m_RefCount: 1
    m_Data: {fileID: 8813815085496886684, guid: e202e2fc2101a4c4490b3acf95f4b294,
      type: 3}
  - m_RefCount: 1
    m_Data: {fileID: -6835276744072785760, guid: e202e2fc2101a4c4490b3acf95f4b294,
      type: 3}
  - m_RefCount: 1
    m_Data: {fileID: 8402464592913180643, guid: e202e2fc2101a4c4490b3acf95f4b294,
      type: 3}
  - m_RefCount: 1
    m_Data: {fileID: -3254853038742249471, guid: e202e2fc2101a4c4490b3acf95f4b294,
      type: 3}
  - m_RefCount: 1
    m_Data: {fileID: -6323610611032215402, guid: e202e2fc2101a4c4490b3acf95f4b294,
      type: 3}
  - m_RefCount: 1
    m_Data: {fileID: -4721301054069617602, guid: e202e2fc2101a4c4490b3acf95f4b294,
      type: 3}
  - m_RefCount: 1
    m_Data: {fileID: 2147015527136506264, guid: e202e2fc2101a4c4490b3acf95f4b294,
      type: 3}
  - m_RefCount: 1
    m_Data: {fileID: 1403650607418574919, guid: e202e2fc2101a4c4490b3acf95f4b294,
      type: 3}
  - m_RefCount: 1
    m_Data: {fileID: 4650436327494542774, guid: e202e2fc2101a4c4490b3acf95f4b294,
      type: 3}
  - m_RefCount: 1
    m_Data: {fileID: 8486608725039104117, guid: e202e2fc2101a4c4490b3acf95f4b294,
      type: 3}
  - m_RefCount: 1
    m_Data: {fileID: -3246416448344134604, guid: e202e2fc2101a4c4490b3acf95f4b294,
      type: 3}
  - m_RefCount: 1
    m_Data: {fileID: 5580018608728203199, guid: e202e2fc2101a4c4490b3acf95f4b294,
      type: 3}
  - m_RefCount: 1
    m_Data: {fileID: 7863668928567222943, guid: e202e2fc2101a4c4490b3acf95f4b294,
      type: 3}
  - m_RefCount: 1
    m_Data: {fileID: -5366053918321049083, guid: e202e2fc2101a4c4490b3acf95f4b294,
      type: 3}
  - m_RefCount: 1
    m_Data: {fileID: 3558875731377502902, guid: e202e2fc2101a4c4490b3acf95f4b294,
      type: 3}
  - m_RefCount: 1
    m_Data: {fileID: 8054581177940739175, guid: e202e2fc2101a4c4490b3acf95f4b294,
      type: 3}
  - m_RefCount: 1
    m_Data: {fileID: -1813513695252028928, guid: e202e2fc2101a4c4490b3acf95f4b294,
      type: 3}
  - m_RefCount: 1
    m_Data: {fileID: 110691633508016265, guid: e202e2fc2101a4c4490b3acf95f4b294, type: 3}
  - m_RefCount: 1
    m_Data: {fileID: -5173318670258628170, guid: e202e2fc2101a4c4490b3acf95f4b294,
      type: 3}
  - m_RefCount: 1
    m_Data: {fileID: -4008939216211291016, guid: e202e2fc2101a4c4490b3acf95f4b294,
      type: 3}
  - m_RefCount: 1
    m_Data: {fileID: 8867357604404364081, guid: e202e2fc2101a4c4490b3acf95f4b294,
      type: 3}
  - m_RefCount: 1
    m_Data: {fileID: -4352730477567032214, guid: e202e2fc2101a4c4490b3acf95f4b294,
      type: 3}
  - m_RefCount: 1
    m_Data: {fileID: 3818660318709977233, guid: e202e2fc2101a4c4490b3acf95f4b294,
      type: 3}
  - m_RefCount: 1
    m_Data: {fileID: -6765549610841505982, guid: e202e2fc2101a4c4490b3acf95f4b294,
      type: 3}
  - m_RefCount: 1
    m_Data: {fileID: 4998937224500876124, guid: e202e2fc2101a4c4490b3acf95f4b294,
      type: 3}
  - m_RefCount: 1
    m_Data: {fileID: -1199936339933312810, guid: e202e2fc2101a4c4490b3acf95f4b294,
      type: 3}
  - m_RefCount: 1
    m_Data: {fileID: 4547986755193944361, guid: e202e2fc2101a4c4490b3acf95f4b294,
      type: 3}
  - m_RefCount: 1
    m_Data: {fileID: 3979137799469880484, guid: e202e2fc2101a4c4490b3acf95f4b294,
      type: 3}
  - m_RefCount: 1
    m_Data: {fileID: -2637850224642488606, guid: e202e2fc2101a4c4490b3acf95f4b294,
      type: 3}
  - m_RefCount: 1
    m_Data: {fileID: 9086956906396718886, guid: e202e2fc2101a4c4490b3acf95f4b294,
      type: 3}
  - m_RefCount: 1
    m_Data: {fileID: -5561700006409731014, guid: e202e2fc2101a4c4490b3acf95f4b294,
      type: 3}
  - m_RefCount: 1
    m_Data: {fileID: -5436753550215835016, guid: e202e2fc2101a4c4490b3acf95f4b294,
      type: 3}
  - m_RefCount: 1
    m_Data: {fileID: -8266999026625987546, guid: e202e2fc2101a4c4490b3acf95f4b294,
      type: 3}
  - m_RefCount: 1
    m_Data: {fileID: 3851873593501409858, guid: e202e2fc2101a4c4490b3acf95f4b294,
      type: 3}
  - m_RefCount: 1
    m_Data: {fileID: 324894394072747164, guid: e202e2fc2101a4c4490b3acf95f4b294, type: 3}
  - m_RefCount: 1
    m_Data: {fileID: -1777576658924061826, guid: e202e2fc2101a4c4490b3acf95f4b294,
      type: 3}
  - m_RefCount: 1
    m_Data: {fileID: -9067255232676971120, guid: e202e2fc2101a4c4490b3acf95f4b294,
      type: 3}
  - m_RefCount: 1
    m_Data: {fileID: -1463421641390325146, guid: e202e2fc2101a4c4490b3acf95f4b294,
      type: 3}
  - m_RefCount: 1
    m_Data: {fileID: 8787490208024810661, guid: e202e2fc2101a4c4490b3acf95f4b294,
      type: 3}
  - m_RefCount: 1
    m_Data: {fileID: -1810023967320238405, guid: e202e2fc2101a4c4490b3acf95f4b294,
      type: 3}
  - m_RefCount: 1
    m_Data: {fileID: -4037176215284919437, guid: e202e2fc2101a4c4490b3acf95f4b294,
      type: 3}
  - m_RefCount: 1
    m_Data: {fileID: -6023555733352806269, guid: e202e2fc2101a4c4490b3acf95f4b294,
      type: 3}
  m_TileMatrixArray:
  - m_RefCount: 80
    m_Data:
      e00: 1
      e01: 0
      e02: 0
      e03: 0
      e10: 0
      e11: 1
      e12: 0
      e13: 0
      e20: 0
      e21: 0
      e22: 1
      e23: 0
      e30: 0
      e31: 0
      e32: 0
      e33: 1
  m_TileColorArray:
  - m_RefCount: 80
    m_Data: {r: 1, g: 1, b: 1, a: 1}
  m_AnimationFrameRate: 1
  m_Color: {r: 1, g: 1, b: 1, a: 1}
  m_Origin: {x: -1, y: -9, z: 0}
  m_Size: {x: 9, y: 9, z: 1}
  m_TileAnchor: {x: 0.5, y: 0.5, z: 0}
  m_TileOrientation: 0
  m_TileOrientationMatrix:
    e00: 1
    e01: 0
    e02: 0
    e03: 0
    e10: 0
    e11: 1
    e12: 0
    e13: 0
    e20: 0
    e21: 0
    e22: 1
    e23: 0
    e30: 0
    e31: 0
    e32: 0
    e33: 1
--- !u!483693784 &8246654885124850123
TilemapRenderer:
  m_ObjectHideFlags: 0
  m_CorrespondingSourceObject: {fileID: 0}
  m_PrefabInstance: {fileID: 0}
  m_PrefabAsset: {fileID: 0}
  m_GameObject: {fileID: 6165642151059939928}
  m_Enabled: 0
  m_CastShadows: 0
  m_ReceiveShadows: 0
  m_DynamicOccludee: 0
  m_MotionVectors: 1
  m_LightProbeUsage: 0
  m_ReflectionProbeUsage: 0
  m_RenderingLayerMask: 1
  m_RendererPriority: 0
  m_Materials:
  - {fileID: 10754, guid: 0000000000000000f000000000000000, type: 0}
  m_StaticBatchInfo:
    firstSubMesh: 0
    subMeshCount: 0
  m_StaticBatchRoot: {fileID: 0}
  m_ProbeAnchor: {fileID: 0}
  m_LightProbeVolumeOverride: {fileID: 0}
  m_ScaleInLightmap: 1
  m_ReceiveGI: 1
  m_PreserveUVs: 0
  m_IgnoreNormalsForChartDetection: 0
  m_ImportantGI: 0
  m_StitchLightmapSeams: 1
  m_SelectedEditorRenderState: 0
  m_MinimumChartSize: 4
  m_AutoUVMaxDistance: 0.5
  m_AutoUVMaxAngle: 89
  m_LightmapParameters: {fileID: 0}
  m_SortingLayerID: 0
  m_SortingLayer: 0
  m_SortingOrder: 0
  m_ChunkSize: {x: 32, y: 32, z: 32}
  m_ChunkCullingBounds: {x: 0, y: 0, z: 0}
  m_MaxChunkCount: 16
  m_MaxFrameAge: 16
  m_SortOrder: 0
  m_Mode: 0
  m_DetectChunkCullingBounds: 0
  m_MaskInteraction: 0
--- !u!114 &-3650674539990296351
MonoBehaviour:
  m_ObjectHideFlags: 0
  m_CorrespondingSourceObject: {fileID: 0}
  m_PrefabInstance: {fileID: 0}
  m_PrefabAsset: {fileID: 0}
  m_GameObject: {fileID: 0}
  m_Enabled: 1
  m_EditorHideFlags: 0
  m_Script: {fileID: 12395, guid: 0000000000000000e000000000000000, type: 0}
  m_Name: Palette Settings
  m_EditorClassIdentifier: 
  cellSizing: 0
